module grpcServer

go 1.15

require (
	golang.org/x/net v0.0.0-20210331212208-0fccb6fa2b5c // indirect
	golang.org/x/sys v0.0.0-20210331175145-43e1dd70ce54 // indirect
	golang.org/x/text v0.3.6 // indirect
	google.golang.org/genproto v0.0.0-20210513213006-bf773b8c8384 // indirect
	google.golang.org/grpc v1.36.1
	google.golang.org/protobuf v1.26.0
)
